<?xml version="1.0" standalone="no"?>
<!DOCTYPE svg PUBLIC "-//W3C//DTD SVG 20010904//EN"
 "http://www.w3.org/TR/2001/REC-SVG-20010904/DTD/svg10.dtd">
<svg version="1.0" xmlns="http://www.w3.org/2000/svg"
 width="1000.000000pt" height="1000.000000pt" viewBox="0 0 1000.000000 1000.000000"
 preserveAspectRatio="xMidYMid meet">
<metadata>
Created by potrace 1.14, written by Peter Selinger 2001-2017
</metadata>
<g transform="translate(0.000000,1000.000000) scale(0.100000,-0.100000)"
fill="#000000" stroke="none">
<path d="M3295 9990 c-22 -5 -54 -11 -70 -14 -189 -34 -407 -181 -547 -367
-54 -72 -119 -203 -134 -271 -1 -5 -2 -9 -4 -10 -4 -6 -18 -70 -26 -123 -4
-22 -7 -132 -8 -245 l-2 -205 -59 -2 c-33 -2 -276 -4 -540 -7 -264 -2 -491 -6
-505 -9 -115 -23 -310 -98 -310 -119 0 -4 -5 -8 -12 -8 -38 0 -229 -179 -295
-276 -38 -56 -101 -181 -108 -214 -2 -8 -8 -30 -14 -47 -5 -18 -7 -33 -4 -33
3 0 1 -6 -4 -12 -6 -7 -9 -21 -8 -30 2 -10 -1 -18 -5 -18 -8 0 -6 -883 2 -930
2 -14 10 -35 17 -47 6 -13 9 -23 6 -23 -3 0 11 -33 32 -72 52 -100 183 -231
276 -277 94 -45 163 -64 245 -65 17 -1 33 -5 33 -11 1 -5 3 -1229 4 -2720 2
-1490 6 -2730 9 -2755 3 -25 8 -56 11 -70 3 -14 10 -43 15 -65 19 -88 61 -207
80 -230 8 -10 14 -21 14 -24 -4 -13 66 -134 106 -185 162 -204 371 -362 570
-431 3 -1 12 -4 20 -7 76 -26 145 -43 235 -56 66 -9 5304 -9 5375 0 30 4 66
10 80 13 14 3 38 8 54 10 16 3 38 11 50 17 11 6 21 10 21 8 0 -7 84 24 155 58
78 37 153 81 158 95 2 4 8 7 14 7 23 0 203 168 270 252 79 97 189 303 204 382
2 10 8 33 14 51 13 39 17 62 37 190 3 22 6 1258 7 2747 1 1488 4 2710 8 2713
4 4 31 9 60 11 55 4 160 34 213 61 47 25 126 86 172 134 51 54 123 166 123
191 0 10 4 18 9 18 8 0 14 21 29 100 10 50 9 856 -1 910 -12 71 -15 85 -17 88
-2 1 -4 7 -5 12 -1 6 -4 13 -5 18 -1 4 -3 12 -4 17 -1 6 -11 33 -24 60 -13 28
-28 62 -35 78 -6 15 -15 27 -19 27 -5 0 -8 5 -8 11 0 32 -152 203 -235 264
-22 17 -42 33 -45 36 -11 14 -181 99 -198 99 -10 0 -22 4 -27 9 -18 15 -137
41 -218 46 -29 2 -270 4 -537 5 l-485 0 -1 183 c0 215 -6 283 -33 382 -6 22
-10 42 -10 45 1 3 -15 40 -35 83 -67 149 -174 279 -312 382 -66 49 -196 117
-249 130 -11 3 -47 12 -80 22 -56 16 -180 17 -1755 19 -932 1 -1713 -2 -1735
-6z m3325 -622 c0 -4 6 -5 14 -2 21 8 122 -43 157 -79 48 -50 79 -121 85 -190
2 -34 7 -68 9 -74 2 -7 1 -13 -3 -13 -9 0 -7 -54 3 -69 3 -6 3 -11 -2 -11 -4
0 -8 -31 -8 -70 0 -38 3 -70 7 -70 3 0 4 -9 1 -20 -5 -20 -14 -20 -1880 -20
l-1874 0 1 190 c2 199 8 234 55 305 44 66 118 111 203 124 62 8 3232 8 3232
-1z m1885 -1251 c91 -9 178 -78 222 -175 l27 -56 1 -348 1 -348 -26 -1 c-33
-1 -7429 -1 -7455 0 -21 1 -21 5 -20 339 1 344 6 392 43 451 22 35 103 112
113 106 4 -3 9 -1 11 5 11 35 58 35 3584 33 1902 -1 3477 -3 3499 -6z m-6483
-1561 c-3 -5 1 -6 8 -1 16 10 340 12 347 2 2 -4 9 -4 15 -1 15 9 139 11 145 2
2 -5 9 -5 15 -2 17 11 197 10 191 0 -4 -5 0 -6 7 -1 18 11 239 12 233 1 -4 -5
0 -6 7 -1 18 11 399 12 393 1 -4 -5 0 -6 7 -1 18 11 239 12 233 1 -4 -5 0 -6
7 -1 16 10 240 13 234 3 -3 -4 3 -5 12 -1 25 9 127 10 147 1 9 -5 17 -5 17 -1
0 4 28 7 62 6 77 -3 88 -3 163 0 33 2 68 -1 78 -5 9 -5 17 -5 17 -1 0 7 226 9
255 3 6 -1 15 -1 20 0 29 6 137 4 142 -2 2 -5 9 -5 15 -2 17 11 197 10 191 0
-4 -5 0 -6 7 -1 18 11 239 12 233 1 -4 -5 0 -6 7 -1 16 10 340 12 347 2 2 -4
9 -4 15 -1 14 9 139 11 144 2 3 -4 16 -3 30 2 16 7 23 7 19 0 -4 -6 1 -7 11
-3 25 9 127 10 147 1 9 -5 17 -5 17 -1 0 4 28 7 62 6 77 -3 88 -3 163 0 33 2
68 -1 78 -5 9 -5 17 -5 17 -1 0 4 69 8 154 8 89 0 152 -4 149 -9 -4 -5 0 -6 7
-1 18 11 239 12 233 1 -4 -5 0 -6 7 -1 18 11 399 12 393 1 -4 -5 0 -6 7 -1 18
11 239 12 233 1 -4 -5 0 -6 7 -1 16 10 340 12 347 2 2 -4 9 -4 15 -1 15 9 139
11 145 2 2 -5 9 -6 14 -2 18 11 111 10 125 -1 12 -8 14 -410 12 -2720 -3
-2492 -5 -2714 -20 -2756 -26 -73 -65 -152 -88 -176 -11 -12 -20 -25 -20 -29
0 -4 -32 -38 -72 -76 -50 -48 -96 -81 -153 -108 -79 -38 -100 -45 -180 -58
-53 -8 -5138 -8 -5190 1 -125 19 -237 79 -341 182 -108 107 -163 223 -179 373
-3 26 -7 59 -9 75 -2 15 0 30 4 32 4 3 4 22 1 42 -4 21 -4 49 -1 63 3 13 3 46
0 72 -4 31 -3 48 4 49 7 0 6 3 -1 5 -8 4 -9 13 -4 27 5 12 5 31 1 42 -4 11 -4
32 1 47 4 15 4 30 0 33 -5 2 -5 23 -1 45 4 22 4 43 0 45 -5 3 -5 17 -1 32 4
14 4 48 1 75 -4 31 -3 48 4 49 7 0 6 3 -1 5 -8 4 -9 13 -4 27 5 12 5 31 1 42
-4 11 -4 31 0 44 3 13 3 46 0 73 -4 31 -3 48 4 49 7 0 6 3 -1 5 -8 4 -9 13 -4
27 5 12 5 31 1 42 -4 11 -4 31 0 44 3 13 3 46 0 73 -4 31 -3 48 4 49 7 0 6 3
-1 5 -8 4 -9 13 -4 27 5 12 5 31 1 42 -4 11 -4 31 0 44 3 13 3 46 0 73 -4 31
-3 48 4 49 7 0 6 3 -1 5 -8 4 -9 13 -4 27 5 12 5 31 1 42 -4 11 -4 31 0 44 3
13 3 46 0 73 -4 31 -3 48 4 49 7 0 6 3 -1 5 -8 4 -9 13 -4 27 5 12 5 31 1 42
-4 11 -4 31 0 44 3 13 3 46 0 73 -4 31 -3 48 4 49 7 0 6 3 -1 5 -8 4 -9 13 -4
27 5 12 5 31 1 42 -4 11 -4 31 0 44 3 13 3 46 0 73 -4 31 -3 48 4 49 7 0 6 3
-1 5 -8 4 -9 13 -4 27 5 12 5 31 1 42 -4 11 -5 24 -2 29 4 8 4 47 -1 169 -1
26 3 47 8 48 6 0 5 3 -2 5 -8 4 -9 13 -4 27 5 12 5 31 1 42 -4 11 -4 31 0 44
3 13 3 46 0 73 -4 31 -3 48 4 49 7 0 6 3 -1 5 -8 4 -9 13 -4 27 5 12 5 31 1
42 -4 11 -4 31 0 44 3 13 3 46 0 73 -4 31 -3 48 4 49 7 0 6 3 -1 5 -8 4 -9 13
-4 27 5 12 5 31 1 42 -4 11 -4 31 0 44 3 13 3 46 0 73 -4 31 -3 48 4 49 7 0 6
3 -1 5 -8 4 -9 13 -4 27 5 12 5 31 1 42 -4 11 -4 31 0 44 3 13 3 46 0 73 -4
31 -3 48 4 49 7 0 6 3 -1 5 -8 4 -9 13 -4 27 5 12 5 31 1 42 -4 11 -5 24 -2
29 5 9 4 97 -2 131 -2 11 0 32 4 46 4 15 4 32 0 39 -4 7 -5 24 -1 38 4 14 4
47 1 74 -4 31 -3 48 4 49 7 0 6 3 -1 5 -8 4 -9 13 -4 27 5 12 5 31 1 42 -4 11
-4 31 0 44 3 13 3 46 0 73 -4 31 -3 48 4 49 7 0 6 3 -1 5 -8 4 -9 13 -4 27 5
12 5 31 1 42 -4 11 -4 32 1 47 4 15 4 30 0 33 -5 2 -5 23 -1 45 4 22 4 43 0
45 -5 3 -5 17 -1 32 4 14 4 48 1 75 -4 31 -3 48 4 49 7 0 6 3 -1 5 -8 4 -9 13
-4 27 5 12 5 31 1 42 -4 11 -4 31 0 44 3 13 3 46 0 73 -4 31 -3 48 4 49 7 0 6
3 -1 5 -8 4 -9 13 -4 27 5 12 5 31 1 42 -4 11 -4 31 -1 45 4 14 6 34 5 45 -4
31 -6 112 -5 215 1 8 1 51 1 94 1 44 3 82 5 85 2 3 35 6 73 6 39 0 68 -4 64
-9z"/>
<path d="M2730 5925 c-58 -15 -83 -29 -131 -72 -43 -38 -78 -106 -87 -163 -3
-19 -6 -973 -6 -2120 0 -1958 1 -2087 17 -2117 10 -18 15 -33 12 -33 -10 0 31
-53 67 -89 33 -33 65 -50 127 -70 38 -12 767 -10 815 2 37 10 61 23 93 50 50
43 66 63 91 117 l26 55 1 2090 c0 1200 -3 2105 -8 2125 -11 44 -37 101 -54
118 -7 7 -16 19 -20 25 -13 20 -68 56 -115 74 -37 14 -96 17 -413 18 -257 1
-384 -2 -415 -10z m706 -307 c4 -5 8 -918 8 -2031 l1 -2024 -312 0 -313 0 -1
41 c-1 51 -1 3997 0 4011 1 12 605 14 617 3z"/>
<path d="M4595 5922 c-84 -24 -146 -77 -188 -162 l-22 -45 -2 -2110 c-2 -2072
-2 -2111 18 -2161 27 -70 79 -128 147 -161 l57 -28 390 -2 c371 -2 393 -1 443
18 65 25 131 88 163 154 l24 50 3 2101 c1 1485 -1 2111 -9 2135 -33 104 -96
174 -189 209 -54 20 -767 22 -835 2z m717 -307 c0 -5 2 -918 3 -2027 1 -1815
-1 -2018 -15 -2022 -8 -2 -148 -4 -310 -3 l-295 2 -1 2027 c-1 1811 1 2027 14
2030 44 8 602 2 604 -7z"/>
<path d="M6510 5933 c-57 -8 -130 -46 -169 -88 -23 -24 -41 -49 -41 -54 0 -6
-4 -11 -10 -11 -5 0 -9 -3 -8 -7 0 -5 -2 -15 -5 -23 -3 -8 -10 -31 -15 -50
-10 -45 -9 -4173 2 -4220 26 -111 112 -195 226 -220 39 -8 160 -10 415 -7 198
2 369 6 380 8 11 3 38 14 60 26 66 35 109 84 139 158 19 49 19 77 21 2125 0
1141 -3 2095 -8 2120 -18 100 -82 181 -175 223 -45 21 -61 21 -417 22 -203 1
-381 -1 -395 -2z m670 -312 c13 -1 15 -231 13 -2017 -1 -1109 -4 -2022 -6
-2028 -7 -17 -617 -18 -618 -2 -5 70 -2 4047 4 4048 7 3 577 2 607 -1z"/>
</g>
</svg>
